[
    {
        "number": 1,
        "kanji": "日",
        "kun": "ひ, -び, -か, ひ, -び, -か, ひ, -び, -か, ひ, -び, -か, ひ, -び, -か, ひ, -び, -か, ひ, -び, -か, ひ, -び, -か, ひ, -び, -か, ひ, -び, -か",
        "on": "ニチ, ジツ, ひ, -び, -か, ひ, -び, -か, ひ, -び, -か, ひ, -び, -か, ひ, -び, -か, ひ, -び, -か, ひ, -び, -か, ひ, -び, -か, ひ, -び, -か",
        "meaning": "day, sun, Japan, counter for daysday, sun, Japan, counter for daysday, sun, Japan, counter for daysday, sun, Japan, counter for daysday, sun, Japan, counter for daysday, sun, Japan, counter for days",
        "examples": [
            {
                "word": "日",
                "reading": "ひ",
                "meaning": "day, days; sun, sunshine, sunlight; case (esp. unfortunate), event"
            },
            {
                "word": "同日",
                "reading": "どうじつ",
                "meaning": "the same day"
            },
            {
                "word": "日米",
                "reading": "にちべい",
                "meaning": "Japan-America"
            },
            {
                "word": "日本人",
                "reading": "にほんじん, にっぽんじん",
                "meaning": "Japanese person, Japanese people"
            },
            {
                "word": "毎日",
                "reading": "まいにち",
                "meaning": "every day"
            },
            {
                "word": "前日",
                "reading": "ぜんじつ, まえび",
                "meaning": "previous day, the day before"
            },
            {
                "word": "全日",
                "reading": "ぜんじつ",
                "meaning": "all days"
            },
            {
                "word": "日程",
                "reading": "にってい",
                "meaning": "schedule, program, programme, agenda"
            },
            {
                "word": "日本語",
                "reading": "にほんご, にっぽんご",
                "meaning": "Japanese (language)"
            },
            {
                "word": "今日",
                "reading": "こんにち, きょう, こんち, こんじつ",
                "meaning": "today, this day"
            }
        ]
    }
]